{
  "dude":
  {
    "movementSpeed" : 0.5,
    "HP" : 10,
    "shootingDamage" : 2,
    "meleeDamage" : 2,
    "meleeRange" : 2,
    "shootingMaxRange" : 2,
    "shootingMinRange" : 2,
    "attackTime" : 2,
    "attackDelay" : 2,
    "armored" : false,
    "shootingAttackSpeed" : 1,
    "shootingAttackDelay" : 3,
    "meleeAttackSpeed" : 1,
    "meleeAttackDelay" : 3
  },

  "soldier":
  {
    "movementSpeed" : 2.2,
    "HP" : 10,
    "shootingDamage" : 2,
    "meleeDamage" : 2,
    "meleeRange" : 2,
    "shootingMaxRange" : 2,
    "shootingMinRange" : 2,
    "attackTime" : 2,
    "attackDelay" : 2,
    "armored" : false,
    "shootingAttackSpeed" : 1,
    "shootingAttackDelay" : 3,
    "meleeAttackSpeed" : 1,
    "meleeAttackDelay" : 3
  },  

  "machineGunner":
  {
    "movementSpeed" : 10,
    "HP" : 10,
    "shootingDamage" : 2,
    "meleeDamage" : 2,
    "meleeRange" : 2,
    "shootingMaxRange" : 2,
    "shootingMinRange" : 2,
    "attackTime" : 2,
    "attackDelay" : 2,
    "armored" : false,
    "shootingAttackSpeed" : 1,
    "shootingAttackDelay" : 3,
    "meleeAttackSpeed" : 1,
    "meleeAttackDelay" : 3
  },

  "mortar":
  {
    "movementSpeed" : 10,
    "HP" : 10,
    "shootingDamage" : 2,
    "meleeDamage" : 2,
    "meleeRange" : 2,
    "shootingMaxRange" : 2,
    "shootingMinRange" : 2,
    "attackTime" : 2,
    "attackDelay" : 2,
    "armored" : false,
    "shootingAttackSpeed" : 1,
    "shootingAttackDelay" : 3,
    "meleeAttackSpeed" : 1,
    "meleeAttackDelay" : 3
  },

  "bazookaMan":
  {
    "movementSpeed" : 10,
    "HP" : 10,
    "shootingDamage" : 2,
    "meleeDamage" : 2,
    "meleeRange" : 2,
    "shootingMaxRange" : 2,
    "shootingMinRange" : 2,
    "attackTime" : 2,
    "attackDelay" : 2,
    "armored" : false,
    "shootingAttackSpeed" : 1,
    "shootingAttackDelay" : 3,
    "meleeAttackSpeed" : 1,
    "meleeAttackDelay" : 3
  },

  "officer":
  {
    "movementSpeed" : 10,
    "HP" : 10,
    "shootingDamage" : 2,
    "meleeDamage" : 2,
    "meleeRange" : 2,
    "shootingMaxRange" : 2,
    "shootingMinRange" : 2,
    "attackTime" : 2,
    "attackDelay" : 2,
    "armored" : false,
    "shootingAttackSpeed" : 1,
    "shootingAttackDelay" : 3,
    "meleeAttackSpeed" : 1,
    "meleeAttackDelay" : 3
  },

  "tank":
  {
    "movementSpeed" : 10,
    "HP" : 10,
    "shootingDamage" : 2,
    "meleeDamage" : 2,
    "meleeRange" : 2,
    "shootingMaxRange" : 2,
    "shootingMinRange" : 2,
    "attackTime" : 2,
    "attackDelay" : 2,
    "armored" : false,
    "shootingAttackSpeed" : 1,
    "shootingAttackDelay" : 3,
    "meleeAttackSpeed" : 1,
    "meleeAttackDelay" : 3
  },

  "heavyMachineGunner":
  {
    "movementSpeed" : 10,
    "HP" : 10,
    "shootingDamage" : 2,
    "meleeDamage" : 2,
    "meleeRange" : 2,
    "shootingMaxRange" : 2,
    "shootingMinRange" : 2,
    "attackTime" : 2,
    "attackDelay" : 2,
    "armored" : false,
    "shootingAttackSpeed" : 1,
    "shootingAttackDelay" : 3,
    "meleeAttackSpeed" : 1,
    "meleeAttackDelay" : 3
  },

  "sniper":
  {
    "movementSpeed" : 10,
    "HP" : 10,
    "shootingDamage" : 2,
    "meleeDamage" : 2,
    "meleeRange" : 2,
    "shootingMaxRange" : 2,
    "shootingMinRange" : 2,
    "attackTime" : 2,
    "attackDelay" : 2,
    "armored" : false,
    "shootingAttackSpeed" : 1,
    "shootingAttackDelay" : 3,
    "meleeAttackSpeed" : 1,
    "meleeAttackDelay" : 3
  },

  "loaf":
  {
    "movementSpeed" : 10,
    "HP" : 10,
    "shootingDamage" : 2,
    "meleeDamage" : 2,
    "meleeRange" : 2,
    "shootingMaxRange" : 2,
    "shootingMinRange" : 2,
    "attackTime" : 2,
    "attackDelay" : 2,
    "armored" : false,
    "shootingAttackSpeed" : 1,
    "shootingAttackDelay" : 3,
    "meleeAttackSpeed" : 1,
    "meleeAttackDelay" : 3
  },

  "crust":
  {
    "movementSpeed" : 10,
    "HP" : 10,
    "shootingDamage" : 2,
    "meleeDamage" : 2,
    "meleeRange" : 2,
    "shootingMaxRange" : 2,
    "shootingMinRange" : 2,
    "attackTime" : 2,
    "attackDelay" : 2,
    "armored" : false,
    "shootingAttackSpeed" : 1,
    "shootingAttackDelay" : 3,
    "meleeAttackSpeed" : 1,
    "meleeAttackDelay" : 3
  }
}